^C:\USERS\CHELSEA\DROPBOX\CS RESEARCH\MULTISTATE\MS\MS\DEBUG\CSTOPWATCH.OBJ|C:\USERS\CHELSEA\DROPBOX\CS RESEARCH\MULTISTATE\MS\MS\DEBUG\MCS.OBJ
/ERRORREPORT:PROMPT /OUT:"C:\Users\Chelsea\Dropbox\CS Research\MultiState\MS\Debug\MS.exe" /INCREMENTAL:NO /NOLOGO kernel32.lib user32.lib gdi32.lib winspool.lib comdlg32.lib advapi32.lib shell32.lib ole32.lib oleaut32.lib uuid.lib odbc32.lib odbccp32.lib /MANIFEST /ManifestFile:"Debug\MS.exe.intermediate.manifest" /MANIFESTUAC:"level='asInvoker' uiAccess='false'" /DEBUG /PDB:"C:\Users\Chelsea\Dropbox\CS Research\MultiState\MS\Debug\MS.pdb" /SUBSYSTEM:CONSOLE /TLBID:1 /DYNAMICBASE /NXCOMPAT /IMPLIB:"C:\Users\Chelsea\Dropbox\CS Research\MultiState\MS\Debug\MS.lib" /MACHINE:X86 Debug\CStopWatch.obj
Debug\MCS.obj
